TFL Bike Usage · CV Portfolio
…
# Change month to numeric
bike_filtered$month <- as.numeric(bike_filtered$month)

# Change month to numeric
bike_monthly_average$month <- as.numeric(bike_monthly_average$month)

bike_left_join_1 <-left_join(bike_filtered,bike_monthly_average, by="month")

bike_left_join_2 <- bike_left_join_1 %>%
  mutate(diff_month = avgMonth-year_avgMonth)

bike_left_join_2

## # A tibble: 67 x 5
## # Groups:   year [6]
##     year month avgMonth year_avgMonth diff_month
##    <dbl> <dbl>    <dbl>         <dbl>      <dbl>
##  1  2015     1   18828.        20259.     -1431.
##  2  2015     2   19617.        21573.     -1956.
##  3  2015     3   22625.        23115.      -490.
##  4  2015     4   27951.        28230.      -278.
##  5  2015     5   29031.        32422.     -3391.
##  6  2015     6   34659.        35262.      -604.
##  7  2015     7   36607.        37809.     -1202.
##  8  2015     8   33643.        34243.      -600.
##  9  2015     9   30114.        32433.     -2319.
## 10  2015    10   28560.        29900.     -1339.
## # … with 57 more rows
…
